R CRAN Packages (1/5) – dive-R-city
…
tbl_same_rows <- pdb_same_rows |> 
  inner_join(tlb_pkg_same_rows, by = similar_fields)

Lignes présentes dans pdb et absentes de tbl_pkg

Code

pdb_diff_rows <- dplyr::setdiff(pdb_same_rows, tbl_same_rows) |> 
  arrange(stri_trans_tolower(Package))

pdb_diff_rows[,c("Package", "Version", "Depends")]

# A tibble: 41 × 3
   Package      Version Depends                                                 
   <chr>        <chr>   <chr>                                                   
 1 bigGP        0.1.8   "R (>= 3.0.0), Rmpi (>= 0.6-2), methods"                
 2 bigReg       0.1.5   "R (>= 3.2.0), Rcpp (>= 1.0.11), parallel, methods, sta…
 3 boot         1.3-31  "R (>= 4.5), graphics, stats"                           
 4 bspm         0.5.7    <NA>                                                   
 5 class        7.3-23  "R (>= 4.5), stats, utils"                              
 6 clrng        0.0.5   "R (>= 3.5.0), gpuR"                                    
 7 cluster      2.1.8   "R (>= 4.5)"                                            
 8 codetools    0.2-20  "R (>= 4.5)"                                            
 9 corrcoverage 1.2.1   "R (>= 3.5.0)"                                          
10 cronR        0.6.5    <NA>                                                   
# ℹ 31 more rows
…
