R packages emails from Authors@R column – dive-R-city
…
puis en un tibble

tbl_emails_in_authorsR <- as_tibble(mat_emails_in_authorsR) |> 
  rename(Package = V1, 
         Version = V2,
         Depends = V3,
        email_id = V4, 
    email_domain = V5) 

tbl_emails_in_authorsR

# A tibble: 38,026 × 5
   Package       Version Depends                           email_id email_domain
   <chr>         <chr>   <chr>                             <chr>    <chr>       
 1 A3            1.0.0   R (>= 2.15.0), xtable, pbapply    <NA>     <NA>        
 2 AalenJohansen 1.0     <NA>                              martinb… math.ku.dk  
 3 AalenJohansen 1.0     <NA>                              furrer   math.ku.dk  
 4 AATtools      0.0.3   R (>= 3.6.0)                      sercan.… plus.ac.at  
 5 ABACUS        1.0.0   R (>= 3.1.0)                      <NA>     <NA>        
 6 abasequence   0.1.0   <NA>                              andy.pi… uky.edu     
 7 abbreviate    0.1     <NA>                              sigbert  hu-berlin.de
 8 abc           2.2.2   R (>= 2.10), abc.data, nnet, qua… kati.cs… gmail.com   
 9 abc           2.2.2   R (>= 2.10), abc.data, nnet, qua… michael… gmail.com   
10 abc.data      1.1     R (>= 2.10)                       kati.cs… gmail.com   
# ℹ 38,016 more rows

résumé par ligne du data.frame pkgdb

summary_emails_per_pkgdb_row <- tbl_emails_in_authorsR |> 
  mutate(n = if_else(is.na(email_id) & is.na(email_domain), 0, 1)) |> 
  summarize(.by = c(Package, Version, Depends), emails_count = sum(n)) |> 
  mutate(emails_count_estimated = emails_count_per_pkgdb_row)

summary_emails_per_pkgdb_row

# A tibble: 21,954 × 5
   Package       Version Depends             emails_count emails_count_estimated
   <chr>         <chr>   <chr>                      <dbl>                  <dbl>
 1 A3            1.0.0   R (>= 2.15.0), xta…            0                      0
 2 AalenJohansen 1.0     <NA>                           2                      2
 3 AATtools      0.0.3   R (>= 3.6.0)                   1                      1
 4 ABACUS        1.0.0   R (>= 3.1.0)                   0                      0
 5 abasequence   0.1.0   <NA>                           1                      1
 6 abbreviate    0.1     <NA>                           1                      1
 7 abc           2.2.2   R (>= 2.10), abc.d…            2                      2
 8 abc.data      1.1     R (>= 2.10)                    2                      2
 9 ABC.RAP       0.9.0   R (>= 3.1.0)                   0                      0
10 ABCanalysis   1.2.1   R (>= 2.10)                    0                      0
# ℹ 21,944 more rows
…
4135 serveurs de messagerie différents,

159 TLD différents,

Rapport sur les emails

classement du nombre d’emails (dans le champ Authors@R) par package R

tbl_emails |> 
  summarize(email_per_pkg = n(), .by = "Package") |>  
  arrange(desc(email_per_pkg)) |>
  print(n = 20)

# A tibble: 21,939 × 2
   Package         email_per_pkg
   <chr>                   <int>
 1 mlpack                    145
 2 broom                     113
 3 FAIRmaterials              51
 4 moderndive                 43
 5 rticles                    43
 6 CSTools                    34
 7 mlr                        28
 8 semTools                   26
 9 skimr                      25
10 netSEM                     24
11 fgeo                       22
12 Seurat                     22
13 fivethirtyeight            21
14 mice                       20
15 shinyscholar               20
16 httk                       19
17 EpiNow2                    18
18 Rage                       18
19 refund                     18
20 wallace                    18
# ℹ 21,919 more rows
…
